﻿Diese Inschrift stand auf der Glastür eines kleinen Ladens, aber so sah sie natürlich nur aus, wenn man vom Inneren des dämmerigen Raumes durch die Scheibe auf die Straße hinausblickte.
Draußen war ein grauer kalter Novembermorgen, und es regnete in Strömen. Die Tropfen liefen am Glas herunter und über die geschnörkelten Buchstaben. Alles, was man durch die Scheibe sehen konnte, war eine regenfleckige Mauer auf der anderen Straßenseite.
Plötzlich wurde die Tür so heftig aufgerissen, daß eine kleine Traube von Messingglöckchen, die über ihr hing, aufgeregt zu bimmeln begann und sich eine ganze Weile nicht wieder beruhigen konnte.
Der Urheber dieses Tumults war ein kleiner, dicker Junge von vielleicht zehn oder elf Jahren. Das dunkelbraune Haar hing ihm naß ins Gesicht, sein Mantel war vom Regen durchweicht und tropfte, an einem Riemen über der Schulter trug er eine Schulmappe. Er war ein wenig blaß und außer Atem, aber ganz im Gegensatz zu der Eile, die er eben noch gehabt hatte, stand er nun wie angewurzelt in der offenen Tür.
Vor ihm lag ein langer, schmaler Raum, der sich nach hinten zu im Dämmerlicht verlor. An den Wänden standen Regale, die bis unter die Decke reichten und mit Büchern aller Formen und Größen vollgestopft waren. Auf dem Boden türmten sich Stapel großer Folianten, auf einigen Tischen häuften sich Berge kleinerer Bücher, die in Leder gebunden waren und von der Seite golden glänzten.
Hinter einer mannshohen Mauer aus Büchern, die sich am gegenüberliegenden Ende des Raumes erhob, war der Schein einer Lampe zu sehen. In diesem Lichtschein stieg ab und zu ein Rauchkringel auf, wurde größer und zerging weiter oben in der Dunkelheit.
Es sah aus wie die Signale, mit denen Indianer sich von Berg zu Berg Nachrichten zuschicken. Offenbar saß dort jemand, und tatsächlich hörte der Junge nun hinter der Bücherwand eine Stimme ziemlich barsch sagen:
»Wundern Sie sich drinnen oder draußen, aber machen Sie die Tür zu. Es zieht.« Der Junge gehorchte und schloß leise die Tür. Dann näherte er sich der Bücherwand und guckte vorsichtig um die Ecke. Dort saß in einem hohen Ohrenbackensessel aus abgewetztem Leder ein schwerer untersetzter Mann.
Er hatte einen zerknitterten schwarzen Anzug an, der abgetragen und irgendwie staubig aussah. Sein Bauch wurde von einer geblümten Weste zusammengehalten. Der Mann hatte eine Glatze, nur über den Ohren stand je ein Büschel weißer Haare in die Höhe. Das Gesicht war rot und erinnerte an das einer bissigen Bulldogge. Auf der knollenförmigen Nase saß eine kleine goldene Brille.
Außerdem rauchte der Mann aus einer gebogenen Pfeife, die aus seinem Mundwinkel hing, wodurch der ganze Mund schief gezogen war. Auf den Knien hielt er ein Buch, in welchem er offenbar gerade gelesen hatte, denn er hatte beim Zuklappen den dicken Zeigefinger seiner linken Hand zwischen den Seiten gelassen - als Lesezeichen sozusagen